{
  "name": "Portail VA",
  "dockerComposeFile": "compose.yaml",
  "service": "app",
  "workspaceFolder": "/app",
  "portsAttributes": {
    "8080": {
      "label": "Portail VA"
    },
    "5432": {
      "label": "PostgreSQL"
    }
  },
  "customizations": {
    "vscode": {
      "extensions": [
        "ms-python.python",
        "esbenp.prettier-vscode",
        "dbaeumer.vscode-eslint",
        "stylelint.vscode-stylelint",
        "mgmcdermott.vscode-language-babel"
      ]
    }
  },
  "remoteUser": "django",
  "postCreateCommand": "portailva_setup",
  "postStartCommand": "portailva_run",
}
